\relax 
\@writefile{toc}{\contentsline {chapter}{Title Page}{\nbi i}}
\@writefile{toc}{\contentsline {chapter}{Authorization Page}{\nbi ii}}
\@writefile{toc}{\contentsline {chapter}{Signature Page}{\nbi iii}}
\@writefile{toc}{\contentsline {chapter}{Dedication}{\nbi iv}}
\@writefile{toc}{\contentsline {chapter}{Acknowledgments}{\nbi v}}
\@writefile{toc}{\contentsline {chapter}{Table of Contents}{\nbi vi}}
\@writefile{toc}{\contentsline {chapter}{List of Figures}{\nbi viii}}
\@writefile{toc}{\contentsline {chapter}{List of Tables}{\nbi ix}}
\@writefile{toc}{\contentsline {chapter}{Abstract}{\nbi x}}
\@writefile{toc}{\contentsline {chapter}{{Chapter 1}\hspace  {1em}Introduction}{1}}
\@writefile{lof}{\addvspace {1pt}}
\@writefile{lot}{\addvspace {1pt}}
\@writefile{loa}{\addvspace {10\p@ }}
\newlabel{sec:Introduction}{{1}{1}}
\citation{Adomavicius2005,McNee2006,berlyne1960}
\@writefile{toc}{\contentsline {chapter}{{Chapter 2}\hspace  {1em}Related Work}{2}}
\@writefile{lof}{\addvspace {1pt}}
\@writefile{lot}{\addvspace {1pt}}
\@writefile{loa}{\addvspace {10\p@ }}
\newlabel{sec-related}{{2}{2}}
\@writefile{toc}{\contentsline {section}{\numberline {2.1}Categorization for Techniques}{2}}
\newlabel{subsec:rel_rs}{{2.1}{2}}
\@writefile{toc}{\contentsline {section}{\numberline {2.2}Categorization for Similar Problems}{2}}
\newlabel{subsec:rel-durs}{{2.2}{2}}
\@writefile{lof}{\contentsline {figure}{\numberline {3.1}{\ignorespaces Illustration of the Probabilistic Curiosity Model}}{3}}
\newlabel{fig:ill_curi}{{3.1}{3}}
\@writefile{toc}{\contentsline {chapter}{{Chapter 3}\hspace  {1em}Solution}{3}}
\@writefile{lof}{\addvspace {1pt}}
\@writefile{lot}{\addvspace {1pt}}
\@writefile{loa}{\addvspace {10\p@ }}
\newlabel{chapter-cbrs}{{3}{3}}
\newlabel{equ:diff_sigmoid}{{3.1}{3}}
\@writefile{toc}{\contentsline {section}{\numberline {3.1}Section 1}{3}}
\newlabel{sec:sec1}{{3.1}{3}}
\newlabel{fig:img1}{{3.2(a)}{4}}
\newlabel{sub@fig:img1}{{(a)}{4}}
\newlabel{fig:sig_u2}{{3.2(b)}{4}}
\newlabel{sub@fig:sig_u2}{{(b)}{4}}
\@writefile{lof}{\contentsline {figure}{\numberline {3.2}{\ignorespaces Illustration of 2 figures displayed side by side}}{4}}
\@writefile{lof}{\contentsline {subfigure}{\numberline{(a)}{\ignorespaces {Image 1}}}{4}}
\@writefile{lof}{\contentsline {subfigure}{\numberline{(b)}{\ignorespaces {Image 2}}}{4}}
\newlabel{fig:sbs}{{3.2}{4}}
\@writefile{toc}{\contentsline {subsection}{\numberline {3.1.1}Subsection 1}{4}}
\newlabel{subsec:subsec1}{{3.1.1}{4}}
\@writefile{toc}{\contentsline {section}{\numberline {3.2}Section 2}{4}}
\newlabel{sec:sec2}{{3.2}{4}}
\@writefile{toc}{\contentsline {chapter}{{Chapter 4}\hspace  {1em}Experiment Results}{5}}
\@writefile{lof}{\addvspace {1pt}}
\@writefile{lot}{\addvspace {1pt}}
\@writefile{loa}{\addvspace {10\p@ }}
\newlabel{sec-experiment}{{4}{5}}
\@writefile{toc}{\contentsline {section}{\numberline {4.1}Dataset and Parameter Setting}{5}}
\newlabel{subsec:ds}{{4.1}{5}}
\@writefile{lof}{\contentsline {figure}{\numberline {4.1}{\ignorespaces Illustration of a evaluation figure}}{6}}
\newlabel{fig:eval}{{4.1}{6}}
\@writefile{toc}{\contentsline {section}{\numberline {4.2}Evaluation 1}{6}}
\newlabel{subsec:eva1}{{4.2}{6}}
\newlabel{tab:data_stat}{{4.1}{6}}
\@writefile{lot}{\contentsline {table}{\numberline {4.1}{\ignorespaces Statistics of Datasets used in Experiments}}{6}}
\newlabel{tab:stat}{{4.1}{6}}
\@writefile{lot}{\contentsline {table}{\numberline {4.2}{\ignorespaces Evaluation results of two methods}}{6}}
\newlabel{tab:corr}{{4.2}{6}}
\bibstyle{plain}
\bibdata{citation}
\@writefile{toc}{\contentsline {chapter}{{Chapter 5}\hspace  {1em}Summary of Research and Future Work}{7}}
\@writefile{lof}{\addvspace {1pt}}
\@writefile{lot}{\addvspace {1pt}}
\@writefile{loa}{\addvspace {10\p@ }}
\newlabel{sec-future}{{5}{7}}
\@writefile{toc}{\contentsline {section}{\numberline {5.1}Summary of Research and Contributions}{7}}
\newlabel{subsec:summ}{{5.1}{7}}
\@writefile{toc}{\contentsline {section}{\numberline {5.2}Future Research}{7}}
\bibcite{Adomavicius2005}{1}
\bibcite{berlyne1960}{2}
\bibcite{McNee2006}{3}
\@writefile{toc}{\contentsline {chapter}{References}{8}}
